%!PS-Adobe-3.0 EPSF-3.0
%%Creator: 0.46
%%Pages: 1
%%Orientation: Portrait
%%BoundingBox: 8 8 811 295
%%HiResBoundingBox: 8.5745383 8.6912638 810.62601 294.50873
%%EndComments
%%Page: 1 1
0 304 translate
0.8 -0.8 scale
0 0 0 setrgbcolor
[] 0 setdash
1 setlinewidth
0 setlinejoin
0 setlinecap
gsave [5.2983148 0 0 5.2983148 10.718173 10.864085] concat
gsave
0.88235295 0 0.098039217 setrgbcolor
newpath
50.4025 24.187471 moveto
49.05 21.847471 lineto
48.73375 21.324971 48.1625 20.974971 47.5075 20.968721 curveto
47.5075 20.966221 lineto
29.18 20.966221 lineto
32.1375 15.842471 lineto
32.455 15.277471 32.4425 14.612471 32.1525 14.077471 curveto
32.15375 14.078721 lineto
30.7975 11.729971 lineto
30.64375 11.428721 30.4075 11.169971 30.09375 10.987471 curveto
29.7825 10.806221 29.43625 10.733721 29.10125 10.748721 curveto
26.40125 10.747471 lineto
25.7875 10.759971 25.2 11.079971 24.8675 11.643721 curveto
21.9075 16.767471 lineto
12.745 0.89747056 lineto
12.7425 0.89872056 lineto
12.41375 0.33872056 11.83125 0.019970555 11.22624 0.0024705553 curveto
8.515 0.0024705553 lineto
8.1775 -0.015029445 7.83375 0.059970555 7.51875 0.24247056 curveto
7.20625 0.42122056 6.97125 0.68122056 6.815 0.97747056 curveto
5.46375 3.3199706 lineto
5.17 3.8549706 5.1525 4.5249706 5.4725 5.0962206 curveto
14.6375 20.966221 lineto
3.1825 20.966221 lineto
2.525 20.973721 1.955 21.324971 1.63875 21.847471 curveto
0.28625 24.187471 lineto
0.105 24.469971 0.00125 24.806221 0 25.164971 curveto
0 25.527471 0.1075 25.863721 0.29 26.148721 curveto
1.645 28.496221 lineto
1.6475 28.493721 lineto
1.965 29.011221 2.53125 29.354971 3.1825 29.361221 curveto
3.1825 29.363721 lineto
14.6375 29.363721 lineto
5.475 45.236221 lineto
5.1525 45.802471 5.17 46.474971 5.46625 47.007471 curveto
5.46375 47.009971 lineto
6.815 49.352471 lineto
6.97125 49.647471 7.20625 49.906221 7.51875 50.087471 curveto
7.83375 50.268721 8.17625 50.342471 8.515 50.327471 curveto
11.22624 50.329971 lineto
11.22375 50.327471 lineto
11.83125 50.308721 12.41625 49.991221 12.745 49.429971 curveto
12.745 49.432471 lineto
21.9075 33.562471 lineto
24.8675 38.687471 lineto
25.2 39.249971 25.7875 39.569971 26.40125 39.582471 curveto
29.10375 39.584971 lineto
29.43625 39.599971 29.78 39.521221 30.09375 39.342471 curveto
30.4075 39.161221 30.64375 38.902471 30.8 38.601221 curveto
32.15375 36.253721 lineto
32.1525 36.253721 lineto
32.4425 35.718721 32.455 35.052471 32.1375 34.487471 curveto
32.14 34.487471 lineto
29.18125 29.363721 lineto
47.5075 29.363721 lineto
47.5075 29.361221 lineto
48.15625 29.354971 48.72624 29.011221 49.04375 28.493721 curveto
50.39875 26.148721 lineto
50.58125 25.863721 50.69125 25.527471 50.69125 25.164971 curveto
50.69125 24.806221 50.58375 24.469971 50.4025 24.187471 curveto
fill
grestore
gsave
0.28235295 0.28235295 0.28235295 setrgbcolor
newpath
50.72375 39.597471 moveto
51.4225 39.597471 lineto
51.4225 42.262471 lineto
54.53625 42.262471 lineto
54.53625 39.597471 lineto
55.23375 39.597471 lineto
55.23375 45.747471 lineto
54.53625 45.747471 lineto
54.53625 42.874971 lineto
51.4225 42.874971 lineto
51.4225 45.747471 lineto
50.72375 45.747471 lineto
50.72375 39.597471 lineto
closepath
fill
grestore
gsave
0.28235295 0.28235295 0.28235295 setrgbcolor
newpath
56.42775 44.185851 moveto
56.42775 43.064601 lineto
56.42775 41.925851 57.25525 41.330851 58.23025 41.330851 curveto
59.299 41.330851 60.049 41.960851 60.049 43.055851 curveto
60.049 44.115851 lineto
60.049 45.245851 59.239 45.858351 58.2565 45.858351 curveto
57.194 45.858351 56.42775 45.280851 56.42775 44.185851 curveto
59.394 44.142101 moveto
59.394 42.995851 lineto
59.394 42.340851 59.0065 41.874601 58.23025 41.874601 curveto
57.51525 41.874601 57.074 42.297101 57.074 43.029601 curveto
57.074 44.168351 lineto
57.074 44.849601 57.489 45.307101 58.2565 45.307101 curveto
58.9715 45.307101 59.394 44.919601 59.394 44.142101 curveto
fill
grestore
gsave
0.28235295 0.28235295 0.28235295 setrgbcolor
newpath
60.975 44.107971 moveto
60.975 43.141721 lineto
60.975 41.995471 61.7175 41.331721 62.76875 41.331721 curveto
63.76125 41.331721 64.4775 41.891721 64.4775 42.831721 curveto
64.4775 42.942971 lineto
63.85625 42.942971 lineto
63.85625 42.797971 lineto
63.85625 42.314221 63.49375 41.866721 62.7775 41.866721 curveto
62.0625 41.866721 61.64 42.356721 61.64 43.081721 curveto
61.64 44.124221 lineto
61.64 44.824221 62.01 45.306721 62.78625 45.306721 curveto
63.5025 45.306721 63.85625 44.866721 63.85625 44.384221 curveto
63.85625 44.262971 lineto
64.4775 44.262971 lineto
64.4775 44.359221 lineto
64.4775 45.289221 63.78625 45.859221 62.78625 45.859221 curveto
61.70875 45.859221 60.975 45.229221 60.975 44.107971 curveto
fill
grestore
gsave
0.28235295 0.28235295 0.28235295 setrgbcolor
newpath
65.49712 39.588971 moveto
66.13587 39.588971 lineto
66.13587 42.167721 lineto
66.16087 42.167721 lineto
66.45337 41.607721 67.00587 41.322721 67.55712 41.322721 curveto
68.47962 41.322721 68.94587 41.926471 68.94587 42.753971 curveto
68.94587 45.746471 lineto
68.29962 45.746471 lineto
68.29962 42.995221 lineto
68.29962 42.227721 67.93837 41.882721 67.35962 41.882721 curveto
66.70462 41.882721 66.13587 42.373971 66.13587 43.193971 curveto
66.13587 45.746471 lineto
65.49712 45.746471 lineto
65.49712 39.588971 lineto
closepath
fill
grestore
gsave
0.28235295 0.28235295 0.28235295 setrgbcolor
newpath
69.94 45.160221 moveto
70.38 44.797721 lineto
70.72625 45.150221 71.13875 45.331471 71.69125 45.331471 curveto
72.20875 45.331471 72.74375 45.063971 72.74375 44.556471 curveto
72.74375 44.072721 72.44125 43.935221 71.84625 43.823971 curveto
71.34625 43.720221 lineto
70.595 43.572721 70.13 43.227721 70.13 42.606471 curveto
70.13 41.857721 70.7425 41.313971 71.6825 41.313971 curveto
72.33749 41.313971 72.85625 41.468971 73.19125 41.857721 curveto
72.7525 42.192721 lineto
72.47624 41.952721 72.14 41.813971 71.64875 41.813971 curveto
71.12125 41.813971 70.76 42.097721 70.76 42.511471 curveto
70.76 42.926471 71.11375 43.063971 71.69875 43.185221 curveto
72.3475 43.322721 lineto
72.98375 43.461471 73.4075 43.806471 73.4075 44.443971 curveto
73.4075 45.385221 72.53625 45.850221 71.69875 45.850221 curveto
70.99375 45.850221 70.345 45.660221 69.94 45.160221 curveto
fill
grestore
gsave
0.28235295 0.28235295 0.28235295 setrgbcolor
newpath
74.28 44.107971 moveto
74.28 43.141721 lineto
74.28 41.995471 75.0225 41.331721 76.075 41.331721 curveto
77.06625 41.331721 77.7825 41.891721 77.7825 42.831721 curveto
77.7825 42.942971 lineto
77.1625 42.942971 lineto
77.1625 42.797971 lineto
77.1625 42.314221 76.8 41.866721 76.08375 41.866721 curveto
75.3675 41.866721 74.945 42.356721 74.945 43.081721 curveto
74.945 44.124221 lineto
74.945 44.824221 75.315 45.306721 76.09125 45.306721 curveto
76.8075 45.306721 77.1625 44.866721 77.1625 44.384221 curveto
77.1625 44.262971 lineto
77.7825 44.262971 lineto
77.7825 44.359221 lineto
77.7825 45.289221 77.0925 45.859221 76.09125 45.859221 curveto
75.0125 45.859221 74.28 45.229221 74.28 44.107971 curveto
fill
grestore
gsave
0.28235295 0.28235295 0.28235295 setrgbcolor
newpath
78.80187 39.588971 moveto
79.44062 39.588971 lineto
79.44062 42.167721 lineto
79.46687 42.167721 lineto
79.75937 41.607721 80.31187 41.322721 80.86312 41.322721 curveto
81.78562 41.322721 82.25187 41.926471 82.25187 42.753971 curveto
82.25187 45.746471 lineto
81.60437 45.746471 lineto
81.60437 42.995221 lineto
81.60437 42.227721 81.24312 41.882721 80.66562 41.882721 curveto
80.01062 41.882721 79.44062 42.373971 79.44062 43.193971 curveto
79.44062 45.746471 lineto
78.80187 45.746471 lineto
78.80187 39.588971 lineto
closepath
fill
grestore
gsave
0.28235295 0.28235295 0.28235295 setrgbcolor
newpath
83.51362 44.409221 moveto
83.51362 41.417971 lineto
84.15987 41.417971 lineto
84.15987 44.167971 lineto
84.15987 44.935471 84.53112 45.271721 85.10862 45.271721 curveto
85.75487 45.271721 86.32487 44.780471 86.32487 43.960471 curveto
86.32487 41.417971 lineto
86.96362 41.417971 lineto
86.96362 45.746721 lineto
86.34237 45.746721 lineto
86.34237 44.995471 lineto
86.32487 44.995471 lineto
86.02237 45.565471 85.47862 45.850471 84.90237 45.850471 curveto
83.97862 45.850471 83.51362 45.229221 83.51362 44.409221 curveto
fill
grestore
gsave
0.28235295 0.28235295 0.28235295 setrgbcolor
newpath
88.29362 44.685101 moveto
88.29362 39.588851 lineto
88.94112 39.588851 lineto
88.94112 44.711351 lineto
88.94112 45.013851 89.10487 45.245101 89.50112 45.245101 curveto
89.67362 45.245101 89.82112 45.220101 89.97612 45.203851 curveto
89.97612 45.693851 lineto
89.75987 45.763851 89.49237 45.797601 89.28612 45.797601 curveto
88.45862 45.797601 88.29362 45.186351 88.29362 44.685101 curveto
fill
grestore
gsave
0.28235295 0.28235295 0.28235295 setrgbcolor
newpath
90.70175 44.099601 moveto
90.70175 43.184601 lineto
90.70175 41.994601 91.513 41.330851 92.5555 41.330851 curveto
93.513 41.330851 94.273 41.908351 94.273 43.029601 curveto
94.273 43.710851 lineto
91.3655 43.710851 lineto
91.3655 44.159601 lineto
91.3655 44.865851 91.848 45.307101 92.60675 45.307101 curveto
93.108 45.307101 93.4705 45.047101 93.703 44.754601 curveto
94.19425 45.047101 lineto
93.8055 45.652101 93.1855 45.858351 92.56425 45.858351 curveto
91.503 45.858351 90.70175 45.289601 90.70175 44.099601 curveto
93.63425 43.263351 moveto
93.63425 43.012101 lineto
93.63425 42.357101 93.2455 41.867101 92.5205 41.867101 curveto
91.823 41.867101 91.3655 42.383351 91.3655 43.073351 curveto
91.3655 43.263351 lineto
93.63425 43.263351 lineto
closepath
fill
grestore
gsave
0.28235295 0.28235295 0.28235295 setrgbcolor
newpath
97.855 39.597471 moveto
100.2875 39.597471 lineto
101.4425 39.597471 102.37375 40.271221 102.37375 41.529971 curveto
102.37375 42.262471 101.98625 43.021221 101.15875 43.313721 curveto
102.685 45.747471 lineto
101.43375 45.747471 lineto
99.99375 43.443721 lineto
99.0025 43.443721 lineto
99.0025 45.747471 lineto
97.855 45.747471 lineto
97.855 39.597471 lineto
closepath
100.14875 42.478721 moveto
100.81375 42.478721 101.25375 42.158721 101.25375 41.521221 curveto
101.25375 40.796221 100.77 40.564971 100.13125 40.564971 curveto
99.0025 40.564971 lineto
99.0025 42.478721 lineto
100.14875 42.478721 lineto
closepath
fill
grestore
gsave
0.28235295 0.28235295 0.28235295 setrgbcolor
newpath
103.55062 39.597471 moveto
104.60187 39.597471 lineto
104.60187 41.874971 lineto
104.62812 41.874971 lineto
104.92062 41.451221 105.38812 41.244971 105.84312 41.244971 curveto
106.83562 41.244971 107.38812 41.866221 107.38812 42.917471 curveto
107.38812 45.747471 lineto
106.33562 45.747471 lineto
106.33562 43.184971 lineto
106.33562 42.521221 106.05062 42.167471 105.51562 42.167471 curveto
104.93937 42.167471 104.60187 42.521221 104.60187 43.271221 curveto
104.60187 45.747471 lineto
103.55062 45.747471 lineto
103.55062 39.597471 lineto
closepath
fill
grestore
gsave
0.28235295 0.28235295 0.28235295 setrgbcolor
newpath
108.40025 44.046851 moveto
108.40025 43.185601 lineto
108.40025 41.944351 109.3315 41.253101 110.42649 41.253101 curveto
111.38275 41.253101 112.33274 41.814351 112.33274 42.986851 curveto
112.33274 43.840601 lineto
109.494 43.840601 lineto
109.494 44.083101 lineto
109.494 44.643101 109.95149 44.969351 110.51275 44.969351 curveto
110.8665 44.969351 111.2365 44.738101 111.47024 44.400601 curveto
112.28025 44.866851 lineto
111.93525 45.556851 111.2365 45.850601 110.46024 45.850601 curveto
109.374 45.850601 108.40025 45.255601 108.40025 44.046851 curveto
111.28025 43.106851 moveto
111.28025 42.986851 lineto
111.28025 42.383101 110.85775 42.141851 110.42649 42.141851 curveto
109.97775 42.141851 109.494 42.383101 109.494 43.046851 curveto
109.494 43.106851 lineto
111.28025 43.106851 lineto
closepath
fill
grestore
gsave
0.28235295 0.28235295 0.28235295 setrgbcolor
newpath
113.41337 39.537971 moveto
114.46587 39.537971 lineto
114.46587 40.659221 lineto
113.41337 40.659221 lineto
113.41337 39.537971 lineto
closepath
113.41337 41.331721 moveto
114.46587 41.331721 lineto
114.46587 45.747971 lineto
113.41337 45.747971 lineto
113.41337 41.331721 lineto
closepath
fill
grestore
gsave
0.28235295 0.28235295 0.28235295 setrgbcolor
newpath
115.73362 41.331351 moveto
116.75987 41.331351 lineto
116.75987 41.875101 lineto
116.77737 41.875101 lineto
117.07112 41.451351 117.53737 41.245101 118.02737 41.245101 curveto
119.01987 41.245101 119.57237 41.866351 119.57237 42.917601 curveto
119.57237 45.747601 lineto
118.51987 45.747601 lineto
118.51987 43.185101 lineto
118.51987 42.521351 118.23487 42.167601 117.69987 42.167601 curveto
117.12237 42.167601 116.78612 42.521351 116.78612 43.271351 curveto
116.78612 45.747601 lineto
115.73362 45.747601 lineto
115.73362 41.331351 lineto
closepath
fill
grestore
gsave
0.28235295 0.28235295 0.28235295 setrgbcolor
newpath
121.01512 39.597471 moveto
122.41137 39.597471 lineto
123.99887 43.443721 lineto
124.01637 43.443721 lineto
125.56012 39.597471 lineto
126.95762 39.597471 lineto
126.95762 45.747471 lineto
125.85262 45.747471 lineto
125.85262 41.649971 lineto
125.83637 41.649971 lineto
124.43887 45.038721 lineto
123.53387 45.038721 lineto
122.13637 41.668721 lineto
122.11887 41.668721 lineto
122.11887 45.747471 lineto
121.01512 45.747471 lineto
121.01512 39.597471 lineto
closepath
fill
grestore
gsave
0.28235295 0.28235295 0.28235295 setrgbcolor
newpath
127.99575 44.495601 moveto
127.99575 43.641851 128.772 43.133101 129.62575 43.133101 curveto
130.79825 43.133101 lineto
130.79825 42.728101 lineto
130.79825 42.261851 130.4895 42.064351 129.9545 42.064351 curveto
129.497 42.064351 129.1595 42.219351 129.1595 42.503101 curveto
129.1595 42.659351 lineto
128.212 42.659351 lineto
128.212 42.538101 lineto
128.212 41.573101 129.1345 41.244351 129.96199 41.244351 curveto
130.94575 41.244351 131.85074 41.573101 131.85074 42.650601 curveto
131.85074 44.798101 lineto
131.85074 44.995601 131.877 45.651851 131.92825 45.746851 curveto
130.88575 45.746851 lineto
130.86825 45.676851 130.85075 45.409351 130.842 45.340601 curveto
130.8245 45.340601 lineto
130.437 45.746851 130.10075 45.833101 129.53075 45.833101 curveto
128.61575 45.833101 127.99575 45.331851 127.99575 44.495601 curveto
130.79825 44.116851 moveto
130.79825 43.901851 lineto
129.7645 43.901851 lineto
129.31575 43.901851 129.02325 44.056851 129.02325 44.444351 curveto
129.02325 44.814351 129.3245 45.005601 129.81575 45.005601 curveto
130.66075 45.005601 130.79825 44.590601 130.79825 44.116851 curveto
fill
grestore
gsave
0.28235295 0.28235295 0.28235295 setrgbcolor
newpath
133.07837 39.537971 moveto
134.13087 39.537971 lineto
134.13087 40.659221 lineto
133.07837 40.659221 lineto
133.07837 39.537971 lineto
closepath
133.07837 41.331721 moveto
134.13087 41.331721 lineto
134.13087 45.747971 lineto
133.07837 45.747971 lineto
133.07837 41.331721 lineto
closepath
fill
grestore
gsave
0.28235295 0.28235295 0.28235295 setrgbcolor
newpath
135.39962 41.331351 moveto
136.42587 41.331351 lineto
136.42587 41.875101 lineto
136.44212 41.875101 lineto
136.73587 41.451351 137.20212 41.245101 137.69337 41.245101 curveto
138.68587 41.245101 139.23837 41.866351 139.23837 42.917601 curveto
139.23837 45.747601 lineto
138.18462 45.747601 lineto
138.18462 43.185101 lineto
138.18462 42.521351 137.90087 42.167601 137.36587 42.167601 curveto
136.78837 42.167601 136.45212 42.521351 136.45212 43.271351 curveto
136.45212 45.747601 lineto
135.39962 45.747601 lineto
135.39962 41.331351 lineto
closepath
fill
grestore
gsave
0.28235295 0.28235295 0.28235295 setrgbcolor
newpath
50.67212 54.523471 moveto
50.67212 50.383471 lineto
51.37087 50.383471 lineto
51.37087 54.402221 lineto
51.37087 55.497221 52.03462 56.007221 52.95837 56.007221 curveto
53.95712 56.007221 54.56087 55.438471 54.53587 54.428471 curveto
54.53587 50.383471 lineto
55.22462 50.383471 lineto
55.22462 54.480971 lineto
55.23462 55.833471 54.30212 56.635971 52.93962 56.635971 curveto
51.74962 56.635971 50.67212 56.007221 50.67212 54.523471 curveto
fill
grestore
gsave
0.28235295 0.28235295 0.28235295 setrgbcolor
newpath
56.574 52.203971 moveto
57.194 52.203971 lineto
57.194 52.953971 lineto
57.21275 52.953971 lineto
57.51525 52.393971 58.05774 52.108971 58.63525 52.108971 curveto
59.55775 52.108971 60.024 52.711471 60.024 53.540221 curveto
60.024 56.533971 lineto
59.3765 56.533971 lineto
59.3765 53.781471 lineto
59.3765 53.013971 59.01525 52.670221 58.43775 52.670221 curveto
57.78275 52.670221 57.21275 53.160221 57.21275 53.980221 curveto
57.21275 56.533971 lineto
56.574 56.533971 lineto
56.574 52.203971 lineto
closepath
fill
grestore
gsave
0.28235295 0.28235295 0.28235295 setrgbcolor
newpath
61.32837 50.384221 moveto
61.96712 50.384221 lineto
61.96712 51.324221 lineto
61.32837 51.324221 lineto
61.32837 50.384221 lineto
closepath
61.32837 52.204221 moveto
61.96712 52.204221 lineto
61.96712 56.534221 lineto
61.32837 56.534221 lineto
61.32837 52.204221 lineto
closepath
fill
grestore
gsave
0.28235295 0.28235295 0.28235295 setrgbcolor
newpath
62.83837 52.203971 moveto
63.52962 52.203971 lineto
64.72837 55.730221 lineto
64.73712 55.730221 lineto
65.96087 52.203971 lineto
66.61587 52.203971 lineto
65.03837 56.550221 lineto
64.39962 56.550221 lineto
62.83837 52.203971 lineto
closepath
fill
grestore
gsave
0.28235295 0.28235295 0.28235295 setrgbcolor
newpath
67.2825 54.885971 moveto
67.2825 53.970971 lineto
67.2825 52.780971 68.09374 52.117221 69.1375 52.117221 curveto
70.09375 52.117221 70.85375 52.694721 70.85375 53.815971 curveto
70.85375 54.497221 lineto
67.9475 54.497221 lineto
67.9475 54.945971 lineto
67.9475 55.652221 68.43 56.093471 69.18749 56.093471 curveto
69.69 56.093471 70.05125 55.833471 70.28375 55.540971 curveto
70.775 55.833471 lineto
70.38625 56.438471 69.76625 56.644721 69.14625 56.644721 curveto
68.08375 56.644721 67.2825 56.075971 67.2825 54.885971 curveto
70.215 54.049721 moveto
70.215 53.798471 lineto
70.215 53.143471 69.82624 52.652221 69.1025 52.652221 curveto
68.40375 52.652221 67.9475 53.168471 67.9475 53.859721 curveto
67.9475 54.049721 lineto
70.215 54.049721 lineto
closepath
fill
grestore
gsave
0.28235295 0.28235295 0.28235295 setrgbcolor
newpath
71.9415 52.203971 moveto
72.5715 52.203971 lineto
72.5715 53.073971 lineto
72.58775 53.073971 lineto
72.934 52.385221 73.58024 52.133971 74.1415 52.133971 curveto
74.25275 52.133971 74.36525 52.142721 74.46025 52.160221 curveto
74.46025 52.763971 lineto
74.31399 52.737721 74.17525 52.737721 74.06275 52.737721 curveto
73.244 52.737721 72.60649 53.238971 72.58775 54.170221 curveto
72.58775 56.533971 lineto
71.9415 56.533971 lineto
71.9415 52.203971 lineto
closepath
fill
grestore
gsave
0.28235295 0.28235295 0.28235295 setrgbcolor
newpath
74.99725 55.946601 moveto
75.43599 55.584101 lineto
75.78225 55.936601 76.196 56.117851 76.74725 56.117851 curveto
77.26475 56.117851 77.79975 55.850351 77.79975 55.342851 curveto
77.79975 54.859101 77.4985 54.721601 76.90225 54.610351 curveto
76.4035 54.506601 lineto
75.65225 54.359101 75.18725 54.014101 75.18725 53.392851 curveto
75.18725 52.642851 75.7985 52.099101 76.73975 52.099101 curveto
77.39474 52.099101 77.91224 52.254101 78.2485 52.642851 curveto
77.8085 52.979101 lineto
77.53224 52.737851 77.19725 52.600351 76.70474 52.600351 curveto
76.1785 52.600351 75.81725 52.884101 75.81725 53.297851 curveto
75.81725 53.712851 76.16974 53.850351 76.756 53.971601 curveto
77.4035 54.109101 lineto
78.041 54.247851 78.4635 54.592851 78.4635 55.230351 curveto
78.4635 56.171601 77.59349 56.636601 76.756 56.636601 curveto
76.04974 56.636601 75.40225 56.446601 74.99725 55.946601 curveto
fill
grestore
gsave
0.28235295 0.28235295 0.28235295 setrgbcolor
newpath
79.54462 50.384221 moveto
80.18337 50.384221 lineto
80.18337 51.324221 lineto
79.54462 51.324221 lineto
79.54462 50.384221 lineto
closepath
79.54462 52.204221 moveto
80.18337 52.204221 lineto
80.18337 56.534221 lineto
79.54462 56.534221 lineto
79.54462 52.204221 lineto
closepath
fill
grestore
gsave
0.28235295 0.28235295 0.28235295 setrgbcolor
newpath
81.82187 55.627471 moveto
81.82187 52.729971 lineto
81.07187 52.729971 lineto
81.07187 52.212471 lineto
81.82187 52.212471 lineto
81.82187 50.857471 lineto
82.46062 50.857471 lineto
82.46062 52.212471 lineto
83.65937 52.212471 lineto
83.65937 52.729971 lineto
82.46062 52.729971 lineto
82.46062 55.463721 lineto
82.46062 55.894971 82.68437 56.023721 83.07187 56.023721 curveto
83.29687 56.023721 83.49437 55.989971 83.70187 55.946221 curveto
83.70187 56.498721 lineto
83.43437 56.583721 83.08187 56.609971 82.90062 56.609971 curveto
82.33062 56.609971 81.82187 56.368721 81.82187 55.627471 curveto
fill
grestore
gsave
0.28235295 0.28235295 0.28235295 setrgbcolor
newpath
84.24675 58.222851 moveto
84.24675 57.670351 lineto
84.428 57.714101 84.60925 57.740351 84.78175 57.740351 curveto
85.1355 57.740351 85.3855 57.524101 85.50675 57.196601 curveto
85.79925 56.429101 lineto
84.16925 52.204101 lineto
84.868 52.204101 lineto
86.118 55.627851 lineto
86.1355 55.627851 lineto
87.33425 52.204101 lineto
87.9905 52.204101 lineto
86.12675 57.266601 lineto
85.8505 58.041601 85.3255 58.284101 84.773 58.284101 curveto
84.63425 58.284101 84.44425 58.266601 84.24675 58.222851 curveto
fill
grestore
gsave
0.28235295 0.28235295 0.28235295 setrgbcolor
newpath
90.6575 54.972221 moveto
90.6575 53.850971 lineto
90.6575 52.712221 91.485 52.117221 92.46125 52.117221 curveto
93.53 52.117221 94.28125 52.745971 94.28125 53.842221 curveto
94.28125 54.902221 lineto
94.28125 56.032221 93.47 56.644721 92.48625 56.644721 curveto
91.42625 56.644721 90.6575 56.067221 90.6575 54.972221 curveto
93.625 54.928471 moveto
93.625 53.782221 lineto
93.625 53.127221 93.2375 52.660971 92.46125 52.660971 curveto
91.745 52.660971 91.305 53.082221 91.305 53.815971 curveto
91.305 54.954721 lineto
91.305 55.635971 91.71874 56.093471 92.48625 56.093471 curveto
93.2025 56.093471 93.625 55.704721 93.625 54.928471 curveto
fill
grestore
gsave
0.28235295 0.28235295 0.28235295 setrgbcolor
newpath
95.7915 52.720221 moveto
95.02525 52.720221 lineto
95.02525 52.212721 lineto
95.7915 52.212721 lineto
95.7915 51.470221 lineto
95.7915 50.676471 96.2065 50.246471 96.96525 50.246471 curveto
97.129 50.246471 97.29275 50.262721 97.43899 50.297721 curveto
97.43899 50.857721 lineto
97.29275 50.823971 97.189 50.815221 97.0165 50.815221 curveto
96.68899 50.815221 96.43025 50.978971 96.43025 51.435221 curveto
96.43025 52.212721 lineto
97.41399 52.212721 lineto
97.41399 52.720221 lineto
96.43025 52.720221 lineto
96.43025 56.532721 lineto
95.7915 56.532721 lineto
95.7915 52.720221 lineto
closepath
fill
grestore
gsave
0.28235295 0.28235295 0.28235295 setrgbcolor
newpath
102.1685 50.366971 moveto
102.81475 50.366971 lineto
105.0835 56.533221 lineto
104.34974 56.533221 lineto
103.71974 54.746971 lineto
101.20974 54.746971 lineto
100.56349 56.533221 lineto
99.866 56.533221 lineto
102.1685 50.366971 lineto
closepath
103.52225 54.160721 moveto
102.47849 51.203221 lineto
102.46974 51.203221 lineto
101.4085 54.160721 lineto
103.52225 54.160721 lineto
closepath
fill
grestore
gsave
0.28235295 0.28235295 0.28235295 setrgbcolor
newpath
106.02587 52.203971 moveto
106.64712 52.203971 lineto
106.64712 52.910221 lineto
106.66462 52.910221 lineto
106.97462 52.341471 107.56212 52.108971 108.02712 52.108971 curveto
108.94962 52.108971 109.59712 52.686471 109.59712 53.642721 curveto
109.59712 54.972721 lineto
109.59712 56.136471 108.79462 56.645221 107.94962 56.645221 curveto
107.40587 56.645221 106.87962 56.333971 106.68962 55.842721 curveto
106.66462 55.842721 lineto
106.66462 58.206471 lineto
106.02587 58.206471 lineto
106.02587 52.203971 lineto
closepath
108.94212 55.032721 moveto
108.94212 53.668971 lineto
108.94212 53.091471 108.51837 52.661471 107.83712 52.661471 curveto
107.28587 52.661471 106.66462 53.117721 106.66462 53.945221 curveto
106.66462 54.868971 lineto
106.66462 55.618971 107.21587 56.092721 107.85462 56.092721 curveto
108.38087 56.092721 108.94212 55.773971 108.94212 55.032721 curveto
fill
grestore
gsave
0.28235295 0.28235295 0.28235295 setrgbcolor
newpath
110.73762 52.203971 moveto
111.35762 52.203971 lineto
111.35762 52.910221 lineto
111.37637 52.910221 lineto
111.68637 52.341471 112.27262 52.108971 112.73762 52.108971 curveto
113.66137 52.108971 114.30887 52.686471 114.30887 53.642721 curveto
114.30887 54.972721 lineto
114.30887 56.136471 113.50637 56.645221 112.66137 56.645221 curveto
112.11762 56.645221 111.59137 56.333971 111.40262 55.842721 curveto
111.37637 55.842721 lineto
111.37637 58.206471 lineto
110.73762 58.206471 lineto
110.73762 52.203971 lineto
closepath
113.65262 55.032721 moveto
113.65262 53.668971 lineto
113.65262 53.091471 113.23137 52.661471 112.54887 52.661471 curveto
111.99637 52.661471 111.37637 53.117721 111.37637 53.945221 curveto
111.37637 54.868971 lineto
111.37637 55.618971 111.92762 56.092721 112.56637 56.092721 curveto
113.09137 56.092721 113.65262 55.773971 113.65262 55.032721 curveto
fill
grestore
gsave
0.28235295 0.28235295 0.28235295 setrgbcolor
newpath
115.45762 55.471471 moveto
115.45762 50.375221 lineto
116.10387 50.375221 lineto
116.10387 55.497721 lineto
116.10387 55.800221 116.26887 56.031471 116.66512 56.031471 curveto
116.83762 56.031471 116.98512 56.006471 117.14012 55.990221 curveto
117.14012 56.480221 lineto
116.92387 56.550221 116.65637 56.583971 116.45012 56.583971 curveto
115.62137 56.583971 115.45762 55.972721 115.45762 55.471471 curveto
fill
grestore
gsave
0.28235295 0.28235295 0.28235295 setrgbcolor
newpath
118.07212 50.384221 moveto
118.71087 50.384221 lineto
118.71087 51.324221 lineto
118.07212 51.324221 lineto
118.07212 50.384221 lineto
closepath
118.07212 52.204221 moveto
118.71087 52.204221 lineto
118.71087 56.534221 lineto
118.07212 56.534221 lineto
118.07212 52.204221 lineto
closepath
fill
grestore
gsave
0.28235295 0.28235295 0.28235295 setrgbcolor
newpath
119.85012 54.885971 moveto
119.85012 53.970971 lineto
119.85012 52.780971 120.66137 52.117221 121.70387 52.117221 curveto
122.66137 52.117221 123.42137 52.694721 123.42137 53.815971 curveto
123.42137 54.497221 lineto
120.51387 54.497221 lineto
120.51387 54.945971 lineto
120.51387 55.652221 120.99637 56.093471 121.75512 56.093471 curveto
122.25637 56.093471 122.61887 55.833471 122.85137 55.540971 curveto
123.34262 55.833471 lineto
122.95387 56.438471 122.33387 56.644721 121.71262 56.644721 curveto
120.65137 56.644721 119.85012 56.075971 119.85012 54.885971 curveto
122.78262 54.049721 moveto
122.78262 53.798471 lineto
122.78262 53.143471 122.39387 52.652221 121.66887 52.652221 curveto
120.97137 52.652221 120.51387 53.168471 120.51387 53.859721 curveto
120.51387 54.049721 lineto
122.78262 54.049721 lineto
closepath
fill
grestore
gsave
0.28235295 0.28235295 0.28235295 setrgbcolor
newpath
124.33737 55.100721 moveto
124.33737 53.773221 lineto
124.33737 52.608221 125.13862 52.109471 125.99362 52.109471 curveto
126.52862 52.109471 127.05362 52.410721 127.24362 52.900721 curveto
127.26987 52.900721 lineto
127.26987 50.383221 lineto
127.90862 50.383221 lineto
127.90862 56.533221 lineto
127.28612 56.533221 lineto
127.28612 55.773221 lineto
127.26987 55.773221 lineto
126.97612 56.376971 126.36362 56.644471 125.91487 56.644471 curveto
124.98362 56.644471 124.33737 56.058221 124.33737 55.100721 curveto
127.26987 54.783221 moveto
127.26987 53.876971 lineto
127.26987 53.126971 126.72612 52.651971 126.07987 52.651971 curveto
125.55237 52.651971 124.98362 52.970721 124.98362 53.711971 curveto
124.98362 55.075721 lineto
124.98362 55.653221 125.41487 56.084471 126.09612 56.084471 curveto
126.65737 56.084471 127.26987 55.619471 127.26987 54.783221 curveto
fill
grestore
gsave
0.28235295 0.28235295 0.28235295 setrgbcolor
newpath
131.09362 55.161851 moveto
131.73237 54.928101 lineto
131.97362 55.619351 132.59362 56.023101 133.42987 56.023101 curveto
134.24112 56.023101 134.89612 55.626851 134.89612 54.919351 curveto
134.89612 54.264351 134.49112 53.996851 133.94862 53.824351 curveto
132.78362 53.498101 lineto
131.92112 53.255601 131.42112 52.806851 131.42112 51.928101 curveto
131.42112 50.909351 132.28362 50.271851 133.39612 50.271851 curveto
134.34487 50.271851 135.13862 50.625601 135.45737 51.435601 curveto
134.85362 51.676851 lineto
134.58612 51.150601 134.08612 50.858101 133.38737 50.858101 curveto
132.75737 50.858101 132.11112 51.176851 132.11112 51.866851 curveto
132.11112 52.349351 132.40362 52.686851 133.12862 52.901851 curveto
134.30237 53.230601 lineto
135.02737 53.428101 135.57862 53.876851 135.57862 54.850601 curveto
135.57862 55.903101 134.70612 56.636851 133.39612 56.636851 curveto
132.27487 56.636851 131.37862 56.126851 131.09362 55.161851 curveto
fill
grestore
gsave
0.28235295 0.28235295 0.28235295 setrgbcolor
newpath
136.45199 54.894351 moveto
136.45199 53.928101 lineto
136.45199 52.781851 137.1945 52.118101 138.24575 52.118101 curveto
139.23825 52.118101 139.9545 52.678101 139.9545 53.618101 curveto
139.9545 53.729351 lineto
139.33324 53.729351 lineto
139.33324 53.584351 lineto
139.33324 53.100601 138.97075 52.651851 138.2545 52.651851 curveto
137.5395 52.651851 137.117 53.143101 137.117 53.868101 curveto
137.117 54.910601 lineto
137.117 55.610601 137.487 56.093101 138.26325 56.093101 curveto
138.9795 56.093101 139.33324 55.653101 139.33324 55.170601 curveto
139.33324 55.049351 lineto
139.9545 55.049351 lineto
139.9545 55.145601 lineto
139.9545 56.075601 139.26325 56.645601 138.26325 56.645601 curveto
137.1845 56.645601 136.45199 56.015601 136.45199 54.894351 curveto
fill
grestore
gsave
0.28235295 0.28235295 0.28235295 setrgbcolor
newpath
140.97462 50.384221 moveto
141.61337 50.384221 lineto
141.61337 51.324221 lineto
140.97462 51.324221 lineto
140.97462 50.384221 lineto
closepath
140.97462 52.204221 moveto
141.61337 52.204221 lineto
141.61337 56.534221 lineto
140.97462 56.534221 lineto
140.97462 52.204221 lineto
closepath
fill
grestore
gsave
0.28235295 0.28235295 0.28235295 setrgbcolor
newpath
142.751 54.885971 moveto
142.751 53.970971 lineto
142.751 52.780971 143.56224 52.117221 144.60599 52.117221 curveto
145.56224 52.117221 146.32225 52.694721 146.32225 53.815971 curveto
146.32225 54.497221 lineto
143.416 54.497221 lineto
143.416 54.945971 lineto
143.416 55.652221 143.8985 56.093471 144.656 56.093471 curveto
145.1585 56.093471 145.51974 55.833471 145.75225 55.540971 curveto
146.2435 55.833471 lineto
145.85475 56.438471 145.23475 56.644721 144.61475 56.644721 curveto
143.55225 56.644721 142.751 56.075971 142.751 54.885971 curveto
145.6835 54.049721 moveto
145.6835 53.798471 lineto
145.6835 53.143471 145.29475 52.652221 144.571 52.652221 curveto
143.87225 52.652221 143.416 53.168471 143.416 53.859721 curveto
143.416 54.049721 lineto
145.6835 54.049721 lineto
closepath
fill
grestore
gsave
0.28235295 0.28235295 0.28235295 setrgbcolor
newpath
147.44474 52.203971 moveto
148.06475 52.203971 lineto
148.06475 52.953971 lineto
148.0835 52.953971 lineto
148.386 52.393971 148.9285 52.108971 149.506 52.108971 curveto
150.42849 52.108971 150.89475 52.711471 150.89475 53.540221 curveto
150.89475 56.533971 lineto
150.24725 56.533971 lineto
150.24725 53.781471 lineto
150.24725 53.013971 149.886 52.670221 149.3085 52.670221 curveto
148.6535 52.670221 148.0835 53.160221 148.0835 53.980221 curveto
148.0835 56.533971 lineto
147.44474 56.533971 lineto
147.44474 52.203971 lineto
closepath
fill
grestore
gsave
0.28235295 0.28235295 0.28235295 setrgbcolor
newpath
151.99212 54.894351 moveto
151.99212 53.928101 lineto
151.99212 52.781851 152.73462 52.118101 153.78712 52.118101 curveto
154.77837 52.118101 155.49462 52.678101 155.49462 53.618101 curveto
155.49462 53.729351 lineto
154.87462 53.729351 lineto
154.87462 53.584351 lineto
154.87462 53.100601 154.51212 52.651851 153.79587 52.651851 curveto
153.07962 52.651851 152.65712 53.143101 152.65712 53.868101 curveto
152.65712 54.910601 lineto
152.65712 55.610601 153.02712 56.093101 153.80337 56.093101 curveto
154.51962 56.093101 154.87462 55.653101 154.87462 55.170601 curveto
154.87462 55.049351 lineto
155.49462 55.049351 lineto
155.49462 55.145601 lineto
155.49462 56.075601 154.80462 56.645601 153.80337 56.645601 curveto
152.72462 56.645601 151.99212 56.015601 151.99212 54.894351 curveto
fill
grestore
gsave
0.28235295 0.28235295 0.28235295 setrgbcolor
newpath
156.30662 54.885971 moveto
156.30662 53.970971 lineto
156.30662 52.780971 157.11787 52.117221 158.16037 52.117221 curveto
159.11912 52.117221 159.87787 52.694721 159.87787 53.815971 curveto
159.87787 54.497221 lineto
156.97037 54.497221 lineto
156.97037 54.945971 lineto
156.97037 55.652221 157.45412 56.093471 158.21287 56.093471 curveto
158.71287 56.093471 159.07537 55.833471 159.30912 55.540971 curveto
159.79912 55.833471 lineto
159.41162 56.438471 158.79037 56.644721 158.16912 56.644721 curveto
157.10912 56.644721 156.30662 56.075971 156.30662 54.885971 curveto
159.23912 54.049721 moveto
159.23912 53.798471 lineto
159.23912 53.143471 158.85162 52.652221 158.12662 52.652221 curveto
157.42787 52.652221 156.97037 53.168471 156.97037 53.859721 curveto
156.97037 54.049721 lineto
159.23912 54.049721 lineto
closepath
fill
grestore
gsave
0.28235295 0.28235295 0.28235295 setrgbcolor
newpath
160.69075 55.946601 moveto
161.13075 55.584101 lineto
161.47575 55.936601 161.8895 56.117851 162.442 56.117851 curveto
162.95824 56.117851 163.49325 55.850351 163.49325 55.342851 curveto
163.49325 54.859101 163.19075 54.721601 162.597 54.610351 curveto
162.09575 54.506601 lineto
161.34574 54.359101 160.88075 54.014101 160.88075 53.392851 curveto
160.88075 52.642851 161.49325 52.099101 162.43324 52.099101 curveto
163.08825 52.099101 163.60699 52.254101 163.942 52.642851 curveto
163.502 52.979101 lineto
163.22575 52.737851 162.8895 52.600351 162.39825 52.600351 curveto
161.872 52.600351 161.51075 52.884101 161.51075 53.297851 curveto
161.51075 53.712851 161.8645 53.850351 162.4495 53.971601 curveto
163.097 54.109101 lineto
163.7345 54.247851 164.15824 54.592851 164.15824 55.230351 curveto
164.15824 56.171601 163.28575 56.636601 162.4495 56.636601 curveto
161.74325 56.636601 161.09574 56.446601 160.69075 55.946601 curveto
fill
grestore
gsave
0.28235295 0.28235295 0.28235295 setrgbcolor
newpath
50.24875 61.170101 moveto
50.965 61.170101 lineto
52.18 66.248851 lineto
52.18875 66.248851 lineto
53.5 61.170101 lineto
54.12125 61.170101 lineto
55.40625 66.248851 lineto
55.42375 66.248851 lineto
56.6575 61.170101 lineto
57.3475 61.170101 lineto
55.75125 67.353851 lineto
55.09625 67.353851 lineto
53.81125 62.257601 lineto
53.79375 62.257601 lineto
52.50875 67.353851 lineto
51.83625 67.353851 lineto
50.24875 61.170101 lineto
closepath
fill
grestore
gsave
0.28235295 0.28235295 0.28235295 setrgbcolor
newpath
58.27337 61.170471 moveto
58.91212 61.170471 lineto
58.91212 62.110471 lineto
58.27337 62.110471 lineto
58.27337 61.170471 lineto
closepath
58.27337 62.990471 moveto
58.91212 62.990471 lineto
58.91212 67.319221 lineto
58.27337 67.319221 lineto
58.27337 62.990471 lineto
closepath
fill
grestore
gsave
0.28235295 0.28235295 0.28235295 setrgbcolor
newpath
60.224 65.672221 moveto
60.224 64.758471 lineto
60.224 63.567221 61.03525 62.903471 62.07775 62.903471 curveto
63.0365 62.903471 63.79525 63.480971 63.79525 64.602221 curveto
63.79525 65.283471 lineto
60.88775 65.283471 lineto
60.88775 65.732221 lineto
60.88775 66.438471 61.3715 66.879721 62.13025 66.879721 curveto
62.63025 66.879721 62.99275 66.619721 63.22649 66.327221 curveto
63.71649 66.619721 lineto
63.329 67.224721 62.70775 67.430971 62.0865 67.430971 curveto
61.02649 67.430971 60.224 66.862221 60.224 65.672221 curveto
63.1565 64.835971 moveto
63.1565 64.584721 lineto
63.1565 63.929721 62.769 63.438471 62.044 63.438471 curveto
61.34524 63.438471 60.88775 63.954721 60.88775 64.645971 curveto
60.88775 64.835971 lineto
63.1565 64.835971 lineto
closepath
fill
grestore
gsave
0.28235295 0.28235295 0.28235295 setrgbcolor
newpath
64.608 66.732971 moveto
65.04675 66.370471 lineto
65.39175 66.722971 65.80675 66.904221 66.35925 66.904221 curveto
66.8755 66.904221 67.4105 66.636721 67.4105 66.129221 curveto
67.4105 65.645471 67.108 65.507971 66.513 65.396721 curveto
66.013 65.292971 lineto
65.263 65.145471 64.798 64.800471 64.798 64.179221 curveto
64.798 63.429221 65.40925 62.885471 66.3505 62.885471 curveto
67.0055 62.885471 67.523 63.040471 67.858 63.429221 curveto
67.418 63.765471 lineto
67.143 63.524221 66.80675 63.386721 66.31425 63.386721 curveto
65.78925 63.386721 65.42675 63.670471 65.42675 64.084221 curveto
65.42675 64.499221 65.7805 64.636721 66.36675 64.757971 curveto
67.01425 64.895471 lineto
67.65175 65.034221 68.07425 65.379221 68.07425 66.016721 curveto
68.07425 66.956721 67.203 67.422971 66.36675 67.422971 curveto
65.65925 67.422971 65.013 67.232971 64.608 66.732971 curveto
fill
grestore
gsave
0.28235295 0.28235295 0.28235295 setrgbcolor
newpath
69.79262 66.628601 moveto
69.76762 66.628601 lineto
69.76762 67.319851 lineto
69.15387 67.319851 lineto
69.15387 61.169851 lineto
69.79262 61.169851 lineto
69.79262 63.697351 lineto
69.81887 63.697351 lineto
70.11262 63.118601 70.69012 62.894851 71.15512 62.894851 curveto
72.07887 62.894851 72.72512 63.481101 72.72512 64.438601 curveto
72.72512 65.758601 lineto
72.72512 66.922351 71.90512 67.431101 71.05262 67.431101 curveto
70.51762 67.431101 69.98262 67.121101 69.79262 66.628601 curveto
72.07012 65.818601 moveto
72.07012 64.438601 lineto
72.07012 63.859851 71.64762 63.447351 70.96637 63.447351 curveto
70.41387 63.447351 69.79262 63.929851 69.79262 64.757351 curveto
69.79262 65.654851 lineto
69.79262 66.404851 70.34512 66.879851 70.98262 66.879851 curveto
71.51012 66.879851 72.07012 66.559851 72.07012 65.818601 curveto
fill
grestore
gsave
0.28235295 0.28235295 0.28235295 setrgbcolor
newpath
73.62462 66.154601 moveto
73.62462 65.214601 74.47837 64.852101 75.22837 64.852101 curveto
76.46212 64.852101 lineto
76.46212 64.249601 lineto
76.46212 63.627101 76.04712 63.403351 75.42712 63.403351 curveto
74.91837 63.403351 74.40087 63.584601 74.40087 64.075851 curveto
74.40087 64.223351 lineto
73.81462 64.223351 lineto
73.81462 64.094601 lineto
73.81462 63.213351 74.64212 62.895851 75.45337 62.895851 curveto
76.32337 62.895851 77.10962 63.197101 77.10962 64.170851 curveto
77.10962 66.265851 lineto
77.10962 66.508351 77.14337 67.147101 77.16962 67.319601 curveto
76.54087 67.319601 lineto
76.52212 67.189601 76.50462 66.818351 76.49587 66.707101 curveto
76.47962 66.707101 lineto
76.11712 67.302101 75.59962 67.414601 75.06462 67.414601 curveto
74.25462 67.414601 73.62462 66.957101 73.62462 66.154601 curveto
76.46212 65.740851 moveto
76.46212 65.327101 lineto
75.34087 65.327101 lineto
74.78837 65.327101 74.26337 65.474601 74.26337 66.120851 curveto
74.26337 66.647101 74.71212 66.904601 75.23712 66.904601 curveto
76.09962 66.904601 76.46212 66.422101 76.46212 65.740851 curveto
fill
grestore
gsave
0.28235295 0.28235295 0.28235295 setrgbcolor
newpath
78.18062 65.887101 moveto
78.18062 64.559601 lineto
78.18062 63.394601 78.98187 62.895851 79.83687 62.895851 curveto
80.37187 62.895851 80.89687 63.197101 81.08687 63.687101 curveto
81.11312 63.687101 lineto
81.11312 61.169601 lineto
81.75187 61.169601 lineto
81.75187 67.319601 lineto
81.13062 67.319601 lineto
81.13062 66.560851 lineto
81.11312 66.560851 lineto
80.81937 67.163351 80.20687 67.430851 79.75937 67.430851 curveto
78.82687 67.430851 78.18062 66.844601 78.18062 65.887101 curveto
81.11312 65.569601 moveto
81.11312 64.663351 lineto
81.11312 63.913351 80.56937 63.438351 79.92312 63.438351 curveto
79.39687 63.438351 78.82687 63.757101 78.82687 64.498351 curveto
78.82687 65.862101 lineto
78.82687 66.439601 79.25812 66.870851 79.94062 66.870851 curveto
80.50062 66.870851 81.11312 66.405851 81.11312 65.569601 curveto
fill
grestore
gsave
0.28235295 0.28235295 0.28235295 setrgbcolor
newpath
82.9005 65.672221 moveto
82.9005 64.758471 lineto
82.9005 63.567221 83.71175 62.903471 84.75425 62.903471 curveto
85.713 62.903471 86.47175 63.480971 86.47175 64.602221 curveto
86.47175 65.283471 lineto
83.56425 65.283471 lineto
83.56425 65.732221 lineto
83.56425 66.438471 84.048 66.879721 84.80675 66.879721 curveto
85.30675 66.879721 85.66925 66.619721 85.903 66.327221 curveto
86.393 66.619721 lineto
86.0055 67.224721 85.38425 67.430971 84.763 67.430971 curveto
83.703 67.430971 82.9005 66.862221 82.9005 65.672221 curveto
85.833 64.835971 moveto
85.833 64.584721 lineto
85.833 63.929721 85.4455 63.438471 84.7205 63.438471 curveto
84.02175 63.438471 83.56425 63.954721 83.56425 64.645971 curveto
83.56425 64.835971 lineto
85.833 64.835971 lineto
closepath
fill
grestore
gsave
0.28235295 0.28235295 0.28235295 setrgbcolor
newpath
87.59437 62.990351 moveto
88.21562 62.990351 lineto
88.21562 63.740351 lineto
88.23312 63.740351 lineto
88.53562 63.180351 89.07812 62.895351 89.65687 62.895351 curveto
90.57937 62.895351 91.04562 63.497851 91.04562 64.326601 curveto
91.04562 67.319101 lineto
90.39812 67.319101 lineto
90.39812 64.567851 lineto
90.39812 63.800351 90.03562 63.456601 89.45812 63.456601 curveto
88.80312 63.456601 88.23312 63.946601 88.23312 64.766601 curveto
88.23312 67.319101 lineto
87.59437 67.319101 lineto
87.59437 62.990351 lineto
closepath
fill
grestore
gsave
0.28235295 0.28235295 0.28235295 setrgbcolor
newpath
94.913 61.161721 moveto
97.09425 61.161721 lineto
98.26675 61.161721 99.103 61.834221 99.103 62.999221 curveto
99.103 63.835471 98.6205 64.585471 97.603 64.774221 curveto
99.388 67.319221 lineto
98.613 67.319221 lineto
96.878 64.835471 lineto
95.6105 64.835471 lineto
95.6105 67.319221 lineto
94.913 67.319221 lineto
94.913 61.161721 lineto
closepath
96.93925 64.257971 moveto
97.8705 64.257971 98.41425 63.851721 98.41425 62.990471 curveto
98.41425 62.135471 97.82675 61.747971 96.92175 61.747971 curveto
95.6105 61.747971 lineto
95.6105 64.257971 lineto
96.93925 64.257971 lineto
closepath
fill
grestore
gsave
0.28235295 0.28235295 0.28235295 setrgbcolor
newpath
100.29675 65.981971 moveto
100.29675 62.990721 lineto
100.94425 62.990721 lineto
100.94425 65.740721 lineto
100.94425 66.508221 101.3155 66.844471 101.893 66.844471 curveto
102.53925 66.844471 103.108 66.353221 103.108 65.533221 curveto
103.108 62.990721 lineto
103.74675 62.990721 lineto
103.74675 67.319471 lineto
103.1255 67.319471 lineto
103.1255 66.568221 lineto
103.108 66.568221 lineto
102.80675 67.138221 102.263 67.423221 101.68675 67.423221 curveto
100.763 67.423221 100.29675 66.801971 100.29675 65.981971 curveto
100.90925 61.393221 moveto
101.548 61.393221 lineto
101.548 62.281971 lineto
100.90925 62.281971 lineto
100.90925 61.393221 lineto
closepath
102.548 61.393221 moveto
103.18675 61.393221 lineto
103.18675 62.281971 lineto
102.548 62.281971 lineto
102.548 61.393221 lineto
closepath
fill
grestore
gsave
0.28235295 0.28235295 0.28235295 setrgbcolor
newpath
104.75762 66.732971 moveto
105.19762 66.370471 lineto
105.54387 66.722971 105.95637 66.904221 106.50887 66.904221 curveto
107.02637 66.904221 107.56137 66.636721 107.56137 66.129221 curveto
107.56137 65.645471 107.25887 65.507971 106.66387 65.396721 curveto
106.16387 65.292971 lineto
105.41262 65.145471 104.94762 64.800471 104.94762 64.179221 curveto
104.94762 63.429221 105.56012 62.885471 106.50012 62.885471 curveto
107.15512 62.885471 107.67387 63.040471 108.00887 63.429221 curveto
107.57012 63.765471 lineto
107.29387 63.524221 106.95762 63.386721 106.46637 63.386721 curveto
105.93887 63.386721 105.57762 63.670471 105.57762 64.084221 curveto
105.57762 64.499221 105.93137 64.636721 106.51637 64.757971 curveto
107.16512 64.895471 lineto
107.80137 65.034221 108.22512 65.379221 108.22512 66.016721 curveto
108.22512 66.956721 107.35387 67.422971 106.51637 67.422971 curveto
105.81137 67.422971 105.16262 67.232971 104.75762 66.732971 curveto
fill
grestore
gsave
0.28235295 0.28235295 0.28235295 setrgbcolor
newpath
108.99437 66.732971 moveto
109.43437 66.370471 lineto
109.78062 66.722971 110.19312 66.904221 110.74562 66.904221 curveto
111.26312 66.904221 111.79812 66.636721 111.79812 66.129221 curveto
111.79812 65.645471 111.49562 65.507971 110.90062 65.396721 curveto
110.40062 65.292971 lineto
109.64937 65.145471 109.18437 64.800471 109.18437 64.179221 curveto
109.18437 63.429221 109.79687 62.885471 110.73687 62.885471 curveto
111.39187 62.885471 111.91062 63.040471 112.24562 63.429221 curveto
111.80687 63.765471 lineto
111.53062 63.524221 111.19312 63.386721 110.70312 63.386721 curveto
110.17562 63.386721 109.81437 63.670471 109.81437 64.084221 curveto
109.81437 64.499221 110.16812 64.636721 110.75312 64.757971 curveto
111.40062 64.895471 lineto
112.03812 65.034221 112.46187 65.379221 112.46187 66.016721 curveto
112.46187 66.956721 111.59062 67.422971 110.75312 67.422971 curveto
110.04812 67.422971 109.39937 67.232971 108.99437 66.732971 curveto
fill
grestore
gsave
0.28235295 0.28235295 0.28235295 setrgbcolor
newpath
113.33512 65.672221 moveto
113.33512 64.758471 lineto
113.33512 63.567221 114.14637 62.903471 115.19012 62.903471 curveto
116.14637 62.903471 116.90637 63.480971 116.90637 64.602221 curveto
116.90637 65.283471 lineto
114.00012 65.283471 lineto
114.00012 65.732221 lineto
114.00012 66.438471 114.48262 66.879721 115.24012 66.879721 curveto
115.74137 66.879721 116.10387 66.619721 116.33637 66.327221 curveto
116.82762 66.619721 lineto
116.43887 67.224721 115.81887 67.430971 115.19887 67.430971 curveto
114.13637 67.430971 113.33512 66.862221 113.33512 65.672221 curveto
116.26762 64.835971 moveto
116.26762 64.584721 lineto
116.26762 63.929721 115.87887 63.438471 115.15512 63.438471 curveto
114.45637 63.438471 114.00012 63.954721 114.00012 64.645971 curveto
114.00012 64.835971 lineto
116.26762 64.835971 lineto
closepath
fill
grestore
gsave
0.28235295 0.28235295 0.28235295 setrgbcolor
newpath
118.03837 66.257851 moveto
118.03837 61.161601 lineto
118.68462 61.161601 lineto
118.68462 66.284101 lineto
118.68462 66.586601 118.84837 66.817851 119.24587 66.817851 curveto
119.41837 66.817851 119.56337 66.792851 119.71962 66.776601 curveto
119.71962 67.266601 lineto
119.50337 67.336601 119.23712 67.370351 119.02962 67.370351 curveto
118.20212 67.370351 118.03837 66.759101 118.03837 66.257851 curveto
fill
grestore
gsave
0.28235295 0.28235295 0.28235295 setrgbcolor
newpath
120.342 66.732971 moveto
120.78075 66.370471 lineto
121.127 66.722971 121.54075 66.904221 122.09325 66.904221 curveto
122.6095 66.904221 123.1445 66.636721 123.1445 66.129221 curveto
123.1445 65.645471 122.84325 65.507971 122.247 65.396721 curveto
121.74825 65.292971 lineto
120.997 65.145471 120.532 64.800471 120.532 64.179221 curveto
120.532 63.429221 121.14325 62.885471 122.0845 62.885471 curveto
122.7395 62.885471 123.257 63.040471 123.59325 63.429221 curveto
123.15325 63.765471 lineto
122.877 63.524221 122.54075 63.386721 122.0495 63.386721 curveto
121.52325 63.386721 121.162 63.670471 121.162 64.084221 curveto
121.162 64.499221 121.5145 64.636721 122.10075 64.757971 curveto
122.74825 64.895471 lineto
123.38575 65.034221 123.80825 65.379221 123.80825 66.016721 curveto
123.80825 66.956721 122.93824 67.422971 122.10075 67.422971 curveto
121.3945 67.422971 120.747 67.232971 120.342 66.732971 curveto
fill
grestore
gsave
0.28235295 0.28235295 0.28235295 setrgbcolor
newpath
124.88937 61.161721 moveto
125.52812 61.161721 lineto
125.52812 63.740471 lineto
125.55312 63.740471 lineto
125.84562 63.180471 126.39812 62.895471 126.94937 62.895471 curveto
127.87187 62.895471 128.33812 63.497971 128.33812 64.325471 curveto
128.33812 67.319221 lineto
127.69062 67.319221 lineto
127.69062 64.567971 lineto
127.69062 63.800471 127.33062 63.455471 126.75187 63.455471 curveto
126.09687 63.455471 125.52812 63.946721 125.52812 64.766721 curveto
125.52812 67.319221 lineto
124.88937 67.319221 lineto
124.88937 61.161721 lineto
closepath
fill
grestore
gsave
0.28235295 0.28235295 0.28235295 setrgbcolor
newpath
129.43662 65.672221 moveto
129.43662 64.758471 lineto
129.43662 63.567221 130.24787 62.903471 131.29162 62.903471 curveto
132.24787 62.903471 133.00787 63.480971 133.00787 64.602221 curveto
133.00787 65.283471 lineto
130.10162 65.283471 lineto
130.10162 65.732221 lineto
130.10162 66.438471 130.58412 66.879721 131.34162 66.879721 curveto
131.84287 66.879721 132.20537 66.619721 132.43787 66.327221 curveto
132.92912 66.619721 lineto
132.54037 67.224721 131.92037 67.430971 131.30037 67.430971 curveto
130.23787 67.430971 129.43662 66.862221 129.43662 65.672221 curveto
132.36912 64.835971 moveto
132.36912 64.584721 lineto
132.36912 63.929721 131.98037 63.438471 131.25662 63.438471 curveto
130.55787 63.438471 130.10162 63.954721 130.10162 64.645971 curveto
130.10162 64.835971 lineto
132.36912 64.835971 lineto
closepath
fill
grestore
gsave
0.28235295 0.28235295 0.28235295 setrgbcolor
newpath
134.13087 61.170471 moveto
134.76962 61.170471 lineto
134.76962 62.110471 lineto
134.13087 62.110471 lineto
134.13087 61.170471 lineto
closepath
134.13087 62.990471 moveto
134.76962 62.990471 lineto
134.76962 67.319221 lineto
134.13087 67.319221 lineto
134.13087 62.990471 lineto
closepath
fill
grestore
gsave
0.28235295 0.28235295 0.28235295 setrgbcolor
newpath
136.10649 62.990351 moveto
136.72649 62.990351 lineto
136.72649 63.740351 lineto
136.74525 63.740351 lineto
137.04775 63.180351 137.5815 62.895351 138.1765 62.895351 curveto
138.849 62.895351 139.2365 63.282851 139.40025 63.757851 curveto
139.41025 63.757851 lineto
139.72025 63.205351 140.264 62.895351 140.89275 62.895351 curveto
141.72899 62.895351 142.28149 63.421601 142.28149 64.266601 curveto
142.28149 67.319101 lineto
141.644 67.319101 lineto
141.644 64.567851 lineto
141.644 63.835351 141.31525 63.456601 140.70275 63.456601 curveto
140.0565 63.456601 139.539 63.990351 139.5215 64.696601 curveto
139.5215 67.319101 lineto
138.884 67.319101 lineto
138.884 64.551601 lineto
138.8665 63.851601 138.56399 63.456601 137.94399 63.456601 curveto
137.40025 63.456601 136.75275 63.886601 136.75275 64.705351 curveto
136.75275 67.319101 lineto
136.10649 67.319101 lineto
136.10649 62.990351 lineto
closepath
fill
grestore
gsave
0.28235295 0.28235295 0.28235295 setrgbcolor
newpath
146.03862 65.369971 moveto
146.03862 63.229971 lineto
146.03862 61.919971 147.03112 61.048721 148.36612 61.048721 curveto
149.59112 61.048721 150.56612 61.722471 150.56612 62.859971 curveto
150.56612 63.153721 lineto
149.90237 63.153721 lineto
149.90237 62.946221 lineto
149.90237 62.118721 149.25612 61.669971 148.34987 61.669971 curveto
147.45362 61.669971 146.72862 62.238721 146.72862 63.222471 curveto
146.72862 65.292471 lineto
146.72862 66.223721 147.42737 66.809971 148.39237 66.809971 curveto
149.28987 66.809971 149.92737 66.327471 149.92737 65.499971 curveto
149.92737 64.809971 lineto
148.23862 64.809971 lineto
148.23862 64.188721 lineto
150.59237 64.188721 lineto
150.59237 65.586221 lineto
150.59237 66.749971 149.66112 67.431221 148.39237 67.431221 curveto
147.08112 67.431221 146.03862 66.714971 146.03862 65.369971 curveto
fill
grestore
gsave
0.28235295 0.28235295 0.28235295 setrgbcolor
newpath
151.673 65.672221 moveto
151.673 64.758471 lineto
151.673 63.567221 152.48425 62.903471 153.528 62.903471 curveto
154.48425 62.903471 155.24425 63.480971 155.24425 64.602221 curveto
155.24425 65.283471 lineto
152.338 65.283471 lineto
152.338 65.732221 lineto
152.338 66.438471 152.8205 66.879721 153.578 66.879721 curveto
154.0805 66.879721 154.44175 66.619721 154.67425 66.327221 curveto
155.1655 66.619721 lineto
154.77675 67.224721 154.15675 67.430971 153.53675 67.430971 curveto
152.47425 67.430971 151.673 66.862221 151.673 65.672221 curveto
154.6055 64.835971 moveto
154.6055 64.584721 lineto
154.6055 63.929721 154.21675 63.438471 153.493 63.438471 curveto
152.79425 63.438471 152.338 63.954721 152.338 64.645971 curveto
152.338 64.835971 lineto
154.6055 64.835971 lineto
closepath
fill
grestore
gsave
0.28235295 0.28235295 0.28235295 setrgbcolor
newpath
156.36837 61.170471 moveto
157.00712 61.170471 lineto
157.00712 62.110471 lineto
156.36837 62.110471 lineto
156.36837 61.170471 lineto
closepath
156.36837 62.990471 moveto
157.00712 62.990471 lineto
157.00712 67.319221 lineto
156.36837 67.319221 lineto
156.36837 62.990471 lineto
closepath
fill
grestore
gsave
0.28235295 0.28235295 0.28235295 setrgbcolor
newpath
158.04162 66.732971 moveto
158.48037 66.370471 lineto
158.82662 66.722971 159.24037 66.904221 159.79287 66.904221 curveto
160.30912 66.904221 160.84412 66.636721 160.84412 66.129221 curveto
160.84412 65.645471 160.54287 65.507971 159.94662 65.396721 curveto
159.44787 65.292971 lineto
158.69662 65.145471 158.23162 64.800471 158.23162 64.179221 curveto
158.23162 63.429221 158.84287 62.885471 159.78412 62.885471 curveto
160.43912 62.885471 160.95662 63.040471 161.29287 63.429221 curveto
160.85287 63.765471 lineto
160.57662 63.524221 160.24162 63.386721 159.74912 63.386721 curveto
159.22287 63.386721 158.86162 63.670471 158.86162 64.084221 curveto
158.86162 64.499221 159.21412 64.636721 159.80037 64.757971 curveto
160.44787 64.895471 lineto
161.08537 65.034221 161.50787 65.379221 161.50787 66.016721 curveto
161.50787 66.956721 160.63787 67.422971 159.80037 67.422971 curveto
159.09412 67.422971 158.44662 67.232971 158.04162 66.732971 curveto
fill
grestore
gsave
0.28235295 0.28235295 0.28235295 setrgbcolor
newpath
162.3815 65.672221 moveto
162.3815 64.758471 lineto
162.3815 63.567221 163.19275 62.903471 164.2365 62.903471 curveto
165.19275 62.903471 165.95275 63.480971 165.95275 64.602221 curveto
165.95275 65.283471 lineto
163.0465 65.283471 lineto
163.0465 65.732221 lineto
163.0465 66.438471 163.529 66.879721 164.2865 66.879721 curveto
164.78774 66.879721 165.15025 66.619721 165.38275 66.327221 curveto
165.874 66.619721 lineto
165.48524 67.224721 164.86525 67.430971 164.24525 67.430971 curveto
163.18274 67.430971 162.3815 66.862221 162.3815 65.672221 curveto
165.314 64.835971 moveto
165.314 64.584721 lineto
165.314 63.929721 164.92525 63.438471 164.20149 63.438471 curveto
163.50275 63.438471 163.0465 63.954721 163.0465 64.645971 curveto
163.0465 64.835971 lineto
165.314 64.835971 lineto
closepath
fill
grestore
gsave
0.28235295 0.28235295 0.28235295 setrgbcolor
newpath
167.07612 62.990351 moveto
167.69612 62.990351 lineto
167.69612 63.740351 lineto
167.71487 63.740351 lineto
168.01612 63.180351 168.55987 62.895351 169.13612 62.895351 curveto
170.05862 62.895351 170.52487 63.497851 170.52487 64.326601 curveto
170.52487 67.319101 lineto
169.87862 67.319101 lineto
169.87862 64.567851 lineto
169.87862 63.800351 169.51737 63.456601 168.93862 63.456601 curveto
168.28362 63.456601 167.71487 63.946601 167.71487 64.766601 curveto
167.71487 67.319101 lineto
167.07612 67.319101 lineto
167.07612 62.990351 lineto
closepath
fill
grestore
gsave
0.28235295 0.28235295 0.28235295 setrgbcolor
newpath
171.83 61.161721 moveto
172.46874 61.161721 lineto
172.46874 63.740471 lineto
172.495 63.740471 lineto
172.7875 63.180471 173.34 62.895471 173.89125 62.895471 curveto
174.81375 62.895471 175.28 63.497971 175.28 64.325471 curveto
175.28 67.319221 lineto
174.6325 67.319221 lineto
174.6325 64.567971 lineto
174.6325 63.800471 174.27125 63.455471 173.69375 63.455471 curveto
173.03875 63.455471 172.46874 63.946721 172.46874 64.766721 curveto
172.46874 67.319221 lineto
171.83 67.319221 lineto
171.83 61.161721 lineto
closepath
fill
grestore
gsave
0.28235295 0.28235295 0.28235295 setrgbcolor
newpath
176.37737 65.672221 moveto
176.37737 64.758471 lineto
176.37737 63.567221 177.18862 62.903471 178.23237 62.903471 curveto
179.18987 62.903471 179.94862 63.480971 179.94862 64.602221 curveto
179.94862 65.283471 lineto
177.04237 65.283471 lineto
177.04237 65.732221 lineto
177.04237 66.438471 177.52487 66.879721 178.28362 66.879721 curveto
178.78362 66.879721 179.14612 66.619721 179.37987 66.327221 curveto
179.86987 66.619721 lineto
179.48237 67.224721 178.86112 67.430971 178.24112 67.430971 curveto
177.17987 67.430971 176.37737 66.862221 176.37737 65.672221 curveto
179.30987 64.835971 moveto
179.30987 64.584721 lineto
179.30987 63.929721 178.92237 63.438471 178.19737 63.438471 curveto
177.49862 63.438471 177.04237 63.954721 177.04237 64.645971 curveto
177.04237 64.835971 lineto
179.30987 64.835971 lineto
closepath
fill
grestore
gsave
0.28235295 0.28235295 0.28235295 setrgbcolor
newpath
181.07087 61.170471 moveto
181.70962 61.170471 lineto
181.70962 62.110471 lineto
181.07087 62.110471 lineto
181.07087 61.170471 lineto
closepath
181.07087 62.990471 moveto
181.70962 62.990471 lineto
181.70962 67.319221 lineto
181.07087 67.319221 lineto
181.07087 62.990471 lineto
closepath
fill
grestore
gsave
0.28235295 0.28235295 0.28235295 setrgbcolor
newpath
183.047 62.990351 moveto
183.66825 62.990351 lineto
183.66825 63.740351 lineto
183.68575 63.740351 lineto
183.98825 63.180351 184.522 62.895351 185.11825 62.895351 curveto
185.7895 62.895351 186.17825 63.282851 186.342 63.757851 curveto
186.35075 63.757851 lineto
186.66075 63.205351 187.2045 62.895351 187.83325 62.895351 curveto
188.67074 62.895351 189.22325 63.421601 189.22325 64.266601 curveto
189.22325 67.319101 lineto
188.5845 67.319101 lineto
188.5845 64.567851 lineto
188.5845 63.835351 188.257 63.456601 187.6445 63.456601 curveto
186.997 63.456601 186.4795 63.990351 186.46325 64.696601 curveto
186.46325 67.319101 lineto
185.8245 67.319101 lineto
185.8245 64.551601 lineto
185.807 63.851601 185.50575 63.456601 184.8845 63.456601 curveto
184.34075 63.456601 183.6945 63.886601 183.6945 64.705351 curveto
183.6945 67.319101 lineto
183.047 67.319101 lineto
183.047 62.990351 lineto
closepath
fill
grestore
grestore
showpage
%%EOF
